{
    "cppFile": "Bindings.cpp",
    "rust": {
        "dir": "",
        "interfaceModule": "interface",
        "implementationModule": "implementation"
    },
    "objects": {
        "MailModel": {
            "properties": {
                "folders": {
                    "type": "MailFolders"
                },
                "dialog_folders": {
                    "type": "MailFolders"
                },
                "folder_threads": {
                    "type": "FolderTreeListing"
                },
                "currentFolder": {
                    "type": "QString",
                    "write": true
                },
                "email": {
                    "type": "Email"
                },
                "configFile": {
                    "type": "QString",
                    "write": true,
                    "optional": true
                }
            },
            "functions": {
                "setEmail": {
                    "return": "void",
                    "mut": true,
                    "arguments": [{
                        "name": "uid",
                        "type": "quint64"
                    }]
                },
                "saveDraft": {
                    "return": "void",
                    "mut": true,
                    "arguments": [{
                        "name": "bytes",
                        "type": "QByteArray"
                    }]
                },
                "send": {
                    "return": "void",
                    "mut": true,
                    "arguments": [{
                        "name": "bytes",
                        "type": "QByteArray"
                    }]
                }
            }
        },
        "MailFolders": {
            "type": "Tree",
            "properties": {
                "filter": {
                    "type": "QString",
                    "write": true
                }
            },
            "itemProperties": {
                "name": {
                    "type": "QString"
                },
                "label": {
                    "type": "QString",
                    "rustByValue": true
                },
                "delimiter": {
                    "type": "QString"
                },
                "unread": {
                    "type": "quint64"
                }
            }
        },
        "FolderTreeListing": {
            "type": "Tree",
            "itemProperties": {
                "uid": {
                    "type": "quint64"
                },
                "date": {
                    "type": "QString",
                    "optional": true,
                    "rustByValue": true
                },
                "section": {
                    "type": "QString",
                    "rustByValue": true
                },
                "from": {
                    "type": "QString",
                    "optional": true
                },
                "subject": {
                    "type": "QString",
                    "optional": true
                },
                "seen": {
                    "type": "bool"
                },
                "file_path": {
                    "type": "QString",
                    "optional": true
                },
                "combined": {
                    "type": "QString",
                    "rustByValue": true
                }
            },
            "functions": {
                "setFilter": {
                    "return": "void",
                    "mut": true,
                    "arguments": [{
                        "name": "filter",
                        "type": "QString"
                    }]
                },
                "openMailInKMail": {
                    "return": "void",
                    "arguments": [{
                        "name": "file_path",
                        "type": "QString"
                    }]
                }
            }
        },
        "Email": {
            "type": "Object",
            "properties": {
                "date": {
                    "type": "QString",
                    "rustByFunction": true
                },
                "from": {
                    "type": "QString",
                    "rustByFunction": true
                },
                "subject": {
                    "type": "QString",
                    "rustByFunction": true
                },
                "body": {
                    "type": "QString",
                    "rustByFunction": true
                },
                "html": {
                    "type": "QString",
                    "rustByFunction": true
                },
                "attachments": {
                    "type": "Attachments"
                },
                "bytes": {
                    "type": "QByteArray",
                    "rustByFunction": true
                }
            }
        },
        "EmailForm": {
            "type": "List",
            "itemProperties": {
                "toCcOrBcc": {
                    "type": "QString",
                    "write": true,
                    "rustByValue": true
                },
                "address": {
                    "type": "QString",
                    "write": true
                }
            },
            "properties": {
                "subject": {
                    "type": "QString",
                    "write": true
                },
                "body": {
                    "type": "QString",
                    "write": true
                },
                "sendAttachments": {
                    "type": "Attachments"
                },
                "bytes": {
                    "type": "QByteArray",
                    "rustByFunction": true
                }
            },
            "functions": {
                "initReplyAllFromMailBytes": {
                    "return": "void",
                    "mut": true,
                    "arguments": [{
                        "name": "bytes",
                        "type": "QByteArray"
                    }]
                },
                "initReplyFromMailBytes": {
                    "return": "void",
                    "mut": true,
                    "arguments": [{
                        "name": "bytes",
                        "type": "QByteArray"
                    }]
                }
            }
        },
        "Attachments": {
            "type": "List",
            "itemProperties": {
                "name": {
                    "type": "QString"
                },
                "bytes": {
                    "type": "QByteArray"
                }
            },
            "functions": {
                "saveToFolder": {
                    "return": "QString",
                    "arguments": [{
                        "name": "index",
                        "type": "quint32"
                    }, {
                        "name": "folder",
                        "type": "QString"
                    }]
                }
            }
        }
    }
}
